<?xml version="1.0" encoding="UTF-8" standalone="no"?>
<svg width="56px" height="56px" viewBox="0 0 56 56" version="1.1" xmlns="http://www.w3.org/2000/svg" xmlns:xlink="http://www.w3.org/1999/xlink">
    <!-- Generator: Sketch 3.8.2 (29753) - http://www.bohemiancoding.com/sketch -->
    <title>app_ivu_suite</title>
    <desc>Created with Sketch.</desc>
    <defs></defs>
    <g id="Assets" stroke="none" stroke-width="1" fill="none" fill-rule="evenodd">
        <g id="app_ivu_suite" fill="rgb(51,51,51)">
            <polygon id="Fill-1" points="19 21.7884918 36.7152979 21.7884918 36.7152979 20 19 20"></polygon>
            <polygon id="Fill-2" points="19 28.7884918 36.7152979 28.7884918 36.7152979 27 19 27"></polygon>
            <polygon id="Fill-3" points="19 35.7884918 36.7152979 35.7884918 36.7152979 34 19 34"></polygon>
            <polygon id="Fill-4" points="19 25.7884918 36.7152979 25.7884918 36.7152979 24 19 24"></polygon>
            <polygon id="Fill-5" points="19 32.7884918 36.7152979 32.7884918 36.7152979 31 19 31"></polygon>
            <polygon id="Fill-6" points="19 39.7884918 36.7152979 39.7884918 36.7152979 38 19 38"></polygon>
            <path d="M34.9438298,11.2212787 L31.4002766,11.2212787 L31.4002766,9.7884918 C31.4002766,8.8004918 30.6074043,8 29.6288085,8 L26.0858723,8 C25.1072766,8 24.3144043,8.8004918 24.3144043,9.7884918 L24.3144043,11.2187869 L20.7714681,11.2187869 C19.7928723,11.2187869 19,12.0199016 19,13.0079016 L19,16.1077049 L36.7152979,16.1077049 L36.7152979,13.0079016 C36.7152979,12.0223934 35.9224255,11.2212787 34.9438298,11.2212787 L34.9438298,11.2212787 Z" id="Fill-7"></path>
            <polygon id="Fill-8" points="37.9169787 13 37.9169787 14.7884918 40.5732553 14.7884918 40.5732553 43.4056066 15.7720851 43.4056066 15.7720851 14.7884918 18.4277447 14.7884918 18.4277447 13 14 13 14 45.1940984 42.3447234 45.1940984 42.3447234 13"></polygon>
        </g>
    </g>
</svg>