<?xml version="1.0" encoding="UTF-8" standalone="no"?>
<svg width="24px" height="24px" viewBox="0 0 36 36" version="1.1" xmlns="http://www.w3.org/2000/svg" xmlns:xlink="http://www.w3.org/1999/xlink">
    <!-- Generator: Sketch 3.8.2 (29753) - http://www.bohemiancoding.com/sketch -->
    <title>arrow_right</title>
    <desc>Created with Sketch.</desc>
    <defs></defs>
    <g id="Assets" stroke="none" stroke-width="1" fill="none" fill-rule="evenodd">
        <g id="ARROWS---------------" transform="translate(-52.000000, -91.000000)">
            <g id="arrow_m_right" transform="translate(52.000000, 91.000000)">
                <rect id="Rectangle-7" fill="rgb(0,158,224)" x="0" y="0" width="36" height="36"></rect>
                <polygon id="Rectangle-27-Copy-2" fill="rgb(255,255,255)" points="12.1476583 10.3523417 19.7476583 18.0523417 21.1476583 16.6476583 12.1476583 25.6476583 14.8523417 28.3523417 23.8523417 19.3523417 25.2046834 18 23.8523417 16.6476583 14.8523417 7.64765828"></polygon>
            </g>
        </g>
    </g>
</svg>