<?xml version="1.0" encoding="UTF-8" standalone="no"?>
<svg width="44px" height="44px" viewBox="0 0 44 44" version="1.1" xmlns="http://www.w3.org/2000/svg" xmlns:xlink="http://www.w3.org/1999/xlink">
    <!-- Generator: Sketch 3.8.2 (29753) - http://www.bohemiancoding.com/sketch -->
    <title>arrow_l_right</title>
    <desc>Created with Sketch.</desc>
    <defs></defs>
    <g id="Assets" stroke="none" stroke-width="1" fill="none" fill-rule="evenodd">
        <g id="ARROWS---------------" transform="translate(-61.000000, -155.000000)">
            <g id="arrow_l_right" transform="translate(61.000000, 155.000000)">
                <rect id="Rectangle-7" fill="rgb(0,158,224)" x="0" y="0" width="44" height="44"></rect>
                <polygon id="Rectangle-27-Copy-2" fill="rgb(255,255,255)" points="14.8471379 12.6528621 24.1471379 22.0528621 25.8471379 20.3471379 14.8471379 31.3471379 18.1528621 34.6528621 29.1528621 23.6528621 30.8057242 22 29.1528621 20.3471379 18.1528621 9.3471379"></polygon>
            </g>
        </g>
    </g>
</svg>