<?xml version="1.0" encoding="UTF-8" standalone="no"?>
<svg width="30px" height="30px" viewBox="0 0 36 36" version="1.1" xmlns="http://www.w3.org/2000/svg" xmlns:xlink="http://www.w3.org/1999/xlink">
    <!-- Generator: Sketch 3.8.2 (29753) - http://www.bohemiancoding.com/sketch -->
    <title>arrow_m_collapse</title>
    <desc>Created with Sketch.</desc>
    <defs></defs>
    <g id="Assets" stroke="none" stroke-width="1" fill="none" fill-rule="evenodd">
        <g id="ARROWS---------------" transform="translate(-226.000000, -91.000000)">
            <g id="arrow_m_collapse" transform="translate(244.000000, 109.000000) rotate(180.000000) translate(-244.000000, -109.000000) translate(226.000000, 91.000000)">
                <rect id="Rectangle-435" fill="rgb(0,158,224)" x="0" y="0" width="36" height="36"></rect>
                <g id="Group-12" transform="translate(8.756757, 7.783784)" fill="rgb(255,255,255)">
                    <g id="icon_arrow_large" transform="translate(10.445946, 6.986486) rotate(-270.000000) translate(-10.445946, -6.986486) translate(3.945946, -2.513514)">
                        <polygon id="Rectangle-27-Copy-2" points="0.776353108 3.11553878 7.50013689 9.6193226 8.56013689 8.56013689 0.776353108 16.3439207 3.11553878 18.6831064 10.8993226 10.8993226 12.0689154 9.72972973 10.8993226 8.56013689 3.11553878 0.776353108"></polygon>
                    </g>
                    <g id="icon_arrow_large-copy" transform="translate(10.445946, 14.770270) rotate(-270.000000) translate(-10.445946, -14.770270) translate(3.945946, 5.270270)">
                        <polygon id="Rectangle-27-Copy-2" points="0.776353108 3.11553878 7.50013689 9.6093226 8.56013689 8.56013689 0.776353108 16.3439207 3.11553878 18.6831064 10.8993226 10.8993226 12.0689154 9.72972973 10.8993226 8.56013689 3.11553878 0.776353108"></polygon>
                    </g>
                </g>
            </g>
        </g>
    </g>
</svg>