<?xml version="1.0" encoding="UTF-8" standalone="no"?>
<svg width="32px" height="32px" viewBox="0 0 32 32" version="1.1" xmlns="http://www.w3.org/2000/svg" xmlns:xlink="http://www.w3.org/1999/xlink">
    <!-- Generator: Sketch 3.8.2 (29753) - http://www.bohemiancoding.com/sketch -->
    <title>like-h</title>
    <desc>Created with Sketch.</desc>
    <defs></defs>
    <g id="Assets" stroke="none" stroke-width="1" fill="none" fill-rule="evenodd">
        <g id="like" fill="#FFFFFF">
            <path d="M16.798826,4 C17.382386,4 19.574786,10.4039733 20.147186,10.8251733 C20.719586,11.2460267 27.415946,11.3722133 27.594506,11.9355467 C27.778826,12.5002667 22.432106,16.58296 22.215746,17.2669333 C21.995066,17.9464 23.944106,24.4262933 23.474306,24.77712 C22.999106,25.1262133 17.507666,21.2466667 16.798826,21.2466667 C16.091426,21.2466667 10.598546,25.1276 10.124786,24.77712 C9.65498598,24.4262933 11.604026,17.9464 11.383346,17.2669333 C11.168066,16.5843467 5.82170598,12.5013067 6.00458598,11.9355467 C6.18314598,11.3722133 12.879506,11.2460267 13.451906,10.8251733 C14.024306,10.4025867 16.209506,4 16.798826,4 L16.798826,4 Z"></path>
        </g>
    </g>
</svg>