<?xml version="1.0" encoding="utf-8"?>
<svg xmlns="http://www.w3.org/2000/svg" height="48" width="48" viewBox="0 0 48 48">
  <g>
    <path id="path1" transform="rotate(0,24,24) translate(1.6,7.55) scale(1.4,1.4)  " fill="#ACACAC" d="M0,4.3000031L14.200005,14.600006C16.200005,16.200012,17.700005,14.700012,17.700005,14.700012L32,4.3000031 32,23.5 0,23.5z M0,0L31.900002,0 31.900002,1.9000092 16.400002,13.100006C16.400002,13.100006,15.900002,13.5,15.5,13.200012L0,1.7000122z" />
  </g>
</svg>

