<?xml version="1.0" encoding="utf-8"?>
<svg xmlns="http://www.w3.org/2000/svg" height="48" width="48" viewBox="0 0 48 48">
  <g>
    <path id="path1" transform="rotate(0,24,24) translate(1.12500402331256,0) scale(1.49999964237222,1.49999964237222)  " fill="rgb(9,88,147)" d="M21.5,21.300006C20.9,21.300006 20.5,21.800006 20.5,22.300006 20.5,22.800006 21,23.300006 21.5,23.300006L25,23.300006C25.6,23.300006 26,22.800006 26,22.300006 26,21.800006 25.5,21.300006 25,21.300006z M17.7,2.1000004L17.7,6.9000015 22.5,6.9000015z M6.9000001,1L6.9000001,18.800005 23.5,18.800005 23.5,8.9000025 16.6,8.9000025C16,8.9000025,15.6,8.4000025,15.6,7.9000015L15.6,1z M6.9000001,0L16.6,0C16.9,0,17.1,0.10000038,17.3,0.30000114L24.2,7.1000023C24.4,7.3000031,24.5,7.6000023,24.5,7.8000031L24.5,18.800005 27,18.800005C28.900001,18.800005,30.500001,20.400005,30.500001,22.300006L30.500001,28.500007C30.500001,30.400008,28.900001,32.000008,27,32.000008L3.5,32.000008C1.6000004,32.000008,0,30.400008,0,28.500007L0,22.300006C0,20.400005,1.6000004,18.800005,3.5,18.800005L5.9000001,18.800005 5.9000001,1C5.9000001,0.5,6.4000001,0,6.9000001,0z" />
  </g>
</svg>

