<?xml version="1.0" encoding="UTF-8" standalone="no"?>
<svg width="32px" height="32px" viewBox="0 0 32 32" version="1.1" xmlns="http://www.w3.org/2000/svg" xmlns:xlink="http://www.w3.org/1999/xlink">
    <!-- Generator: Sketch 3.8.2 (29753) - http://www.bohemiancoding.com/sketch -->
    <title>view_list</title>
    <desc>Created with Sketch.</desc>
    <defs></defs>
    <g id="Assets" stroke="none" stroke-width="1" fill="none" fill-rule="evenodd">
        <g id="view_list" fill="rgb(0,158,224)">
            <path d="M9,10.015704 C9,11.1276554 8.10441272,12.0299479 7.00072459,12.0299479 C5.89558728,12.0299479 5,11.1276554 5,10.015704 C5,8.90229252 5.89558728,8 7.00072459,8 C8.10441272,8 9,8.90229252 9,10.015704 Z M26.0492255,8.62860618 L11.9507745,8.62860618 C11.6688055,8.62860618 11.5,8.80628414 11.5,8.98307518 L11.5,10.8896395 C11.5,11.1113674 11.7259512,11.2441085 11.9507745,11.2441085 L26.0492255,11.2441085 C26.1623891,11.2441085 26.2751767,11.2003542 26.3868364,11.1554173 C26.5,11.0664305 26.5,10.9774437 26.5,10.8896395 L26.5,8.98307518 C26.5,8.80510159 26.2736729,8.62860618 26.0492255,8.62860618 Z M9,16.015704 C9,17.1276554 8.10441272,18.0299479 7.00072459,18.0299479 C5.89558728,18.0299479 5,17.1276554 5,16.015704 C5,14.9022925 5.89558728,14 7.00072459,14 C8.10441272,14 9,14.9022925 9,16.015704 Z M11.9507745,14.5649635 C11.6688055,14.5649635 11.5,14.7512883 11.5,14.936683 L11.5,16.9360317 C11.5,17.1685501 11.7259512,17.3077511 11.9507745,17.3077511 L18.9572429,17.3077511 L26.0492255,17.3077511 C26.1623891,17.3077511 26.2751767,17.2618675 26.3868364,17.2147438 C26.5,17.1214264 26.5,17.028109 26.5,16.9360317 L26.5,14.936683 C26.5,14.7500482 26.2736729,14.5649635 26.0492255,14.5649635 L11.9507745,14.5649635 Z M9,22.015704 C9,23.1276554 8.10441272,24.0299479 7.00072459,24.0299479 C5.89558728,24.0299479 5,23.1276554 5,22.015704 C5,20.9022925 5.89558728,20 7.00072459,20 C8.10441272,20 9,20.9022925 9,22.015704 Z M26.0492255,20.5649635 L11.9507745,20.5649635 C11.6688055,20.5649635 11.5,20.7512883 11.5,20.936683 L11.5,22.9360317 C11.5,23.1685501 11.7259512,23.3077511 11.9507745,23.3077511 L26.0492255,23.3077511 C26.1623891,23.3077511 26.2751767,23.2618675 26.3868364,23.2147438 C26.5,23.1214264 26.5,23.028109 26.5,22.9360317 L26.5,20.936683 C26.5,20.7500482 26.2736729,20.5649635 26.0492255,20.5649635 Z"></path>
        </g>
    </g>
</svg>