<?xml version="1.0" encoding="UTF-8" standalone="no"?>
<!-- Created with Inkscape (http://www.inkscape.org/) -->

<svg
   xmlns:dc="http://purl.org/dc/elements/1.1/"
   xmlns:cc="http://creativecommons.org/ns#"
   xmlns:rdf="http://www.w3.org/1999/02/22-rdf-syntax-ns#"
   xmlns:svg="http://www.w3.org/2000/svg"
   xmlns="http://www.w3.org/2000/svg"
   xmlns:sodipodi="http://sodipodi.sourceforge.net/DTD/sodipodi-0.dtd"
   xmlns:inkscape="http://www.inkscape.org/namespaces/inkscape"
   width="26.458334mm"
   height="25.015276mm"
   viewBox="0 0 26.458334 25.015277"
   version="1.1"
   id="svg8"
   inkscape:version="0.92.3 (2405546, 2018-03-11)"
   sodipodi:docname="Visio.svg">
  <defs
     id="defs2" />
  <sodipodi:namedview
     id="base"
     pagecolor="#ffffff"
     bordercolor="#666666"
     borderopacity="1.0"
     inkscape:pageopacity="0.0"
     inkscape:pageshadow="2"
     inkscape:zoom="2.1646365"
     inkscape:cx="52.408134"
     inkscape:cy="49.249401"
     inkscape:document-units="mm"
     inkscape:current-layer="layer1"
     showgrid="false"
     inkscape:pagecheckerboard="true"
     fit-margin-top="0"
     fit-margin-left="0"
     fit-margin-right="0"
     fit-margin-bottom="0"
     inkscape:window-width="806"
     inkscape:window-height="405"
     inkscape:window-x="752"
     inkscape:window-y="602"
     inkscape:window-maximized="0" />
  <metadata
     id="metadata5">
    <rdf:RDF>
      <cc:Work
         rdf:about="">
        <dc:format>image/svg+xml</dc:format>
        <dc:type
           rdf:resource="http://purl.org/dc/dcmitype/StillImage" />
        <dc:title></dc:title>
      </cc:Work>
    </rdf:RDF>
  </metadata>
  <g
     inkscape:label="Layer 1"
     inkscape:groupmode="layer"
     id="layer1"
     transform="translate(-78.049611,-155.14965)">
    <g
       transform="matrix(0.40972438,0,0,0.40972438,44.066951,111.62352)"
       id="layer1-2"
       inkscape:label="Layer 1">
      <path
         inkscape:connector-curvature="0"
         id="path164"
         d="m 100.61951,163.04819 c -9.604374,-1.70379 -17.492264,-3.10462 -17.528644,-3.11295 -0.03638,-0.008 -0.06615,-10.55219 -0.06615,-23.43079 0,-12.87859 0.02977,-23.4223 0.06615,-23.43047 0.03638,-0.008 7.950352,-1.41387 17.586604,-3.12379 l 17.52046,-3.10894 0.0743,2.92535 0.0743,2.92535 13.2882,0.1323 13.2882,0.13229 0.60242,0.60266 0.60242,0.60266 v 22.07801 22.07801 l -0.60242,0.60266 -0.60242,0.60266 -13.2882,0.13229 -13.2882,0.1323 -0.1323,3.1791 -0.13229,3.1791 z"
         style="fill:#ffffff;stroke-width:0.26458332" />
      <path
         inkscape:connector-curvature="0"
         id="path177"
         d="m 100.9981,164.04726 -18.057808,-3.21151 v -24.0808 -24.0808 l 17.925518,-3.15231 c 9.85903,-1.73377 18.13388,-3.20548 18.38854,-3.27045 0.422,-0.10767 0.46302,0.16591 0.46302,3.08772 v 3.20586 h 12.95213 c 8.92884,0 13.15241,0.0913 13.59687,0.29376 0.3546,0.16157 0.77692,0.58389 0.93849,0.93849 0.41515,0.91116 0.41515,44.51392 0,45.42508 -0.16157,0.3546 -0.58389,0.77692 -0.93849,0.93849 -0.44446,0.20251 -4.66803,0.29376 -13.59687,0.29376 h -12.95213 v 3.43958 c 0,2.58994 -0.0817,3.4328 -0.33073,3.41211 -0.1819,-0.0151 -8.45674,-1.47265 -18.38854,-3.23898 z m 44.38385,-27.5575 v -21.82812 h -12.83229 -12.83229 v 4.89479 4.89479 h 3.21995 3.21995 l 3.60477,-3.57188 c 2.1446,-2.12502 3.81313,-3.57187 4.11914,-3.57187 0.61263,0 8.59035,7.86317 8.59035,8.46701 0,0.22199 -1.66687,2.0673 -3.70416,4.1007 l -3.70417,3.69708 v 6.63135 c 0,4.80494 -0.0874,6.7188 -0.3175,6.94886 -0.21252,0.21252 -1.39347,0.3175 -3.57187,0.3175 h -3.25438 v 2.90111 c 0,2.59745 -0.0536,2.92977 -0.51177,3.175 -0.28147,0.15064 -2.12694,0.27389 -4.10104,0.27389 h -3.58927 v 2.24896 2.24895 h 12.83229 12.83229 z m -19.84375,9.92187 v -5.02708 h -2.91041 -2.91042 v 5.02708 5.02709 h 2.91042 2.91041 z m -21.35378,-9.32664 c 1.57058,-5.56612 2.92392,-10.38812 3.00742,-10.71554 0.14654,-0.57457 0.0885,-0.59517 -1.66497,-0.59126 -0.99923,0.002 -1.95921,0.0946 -2.13327,0.20524 -0.22915,0.14568 -3.929156,14.61485 -4.066306,15.90158 -0.009,0.0885 -0.84166,-3.28465 -1.849387,-7.49599 -1.007726,-4.21135 -1.922739,-7.72875 -2.03336,-7.81644 -0.110622,-0.0877 -1.013495,-0.11408 -2.006384,-0.0586 -1.414819,0.079 -1.774413,0.18118 -1.662655,0.47241 0.07843,0.20439 1.29777,4.7724 2.709647,10.15115 l 2.56705,9.77955 1.476856,0.0941 c 0.812273,0.0518 1.774509,0.11662 2.138309,0.14409 0.65007,0.0491 0.71064,-0.12434 3.51705,-10.07029 z m 28.49753,2.25272 v -5.75101 l -3.36962,-3.37712 -3.36962,-3.37711 h -3.11267 -3.11267 v 6.08542 6.08541 h 3.82715 c 4.56645,0 4.37493,-0.15559 4.37493,3.55448 v 2.53094 h 2.38125 2.38125 z m 4.36718,-16.47244 c -1.59662,-1.60158 -3.02607,-2.91197 -3.17655,-2.91197 -0.15049,0 -1.57928,1.30973 -3.1751,2.91052 l -2.90149,2.91051 3.03543,3.04407 3.03543,3.04406 3.04261,-3.04261 3.04261,-3.0426 z"
         style="fill:#3652a0;stroke-width:0.26458332" />
    </g>
  </g>
</svg>
