<svg xmlns="http://www.w3.org/2000/svg" xmlns:xlink="http://www.w3.org/1999/xlink" viewBox="0 0 459 383">
	<title>weiterleiten</title>
	<g id="Forma_1" data-name="Forma 1" >
		<g>
			<path d="M459,178.73L280.5,0V102.13C102,127.67,25.5,255.33,0,383c63.75-89.37,153-130.22,280.5-130.22V357.47Z" style="fill:#1E1E1E"/>
		</g>
	</g>
</svg>