<?xml version="1.0" encoding="UTF-8" standalone="no"?>
<!-- Created with Inkscape (http://www.inkscape.org/) -->

<svg
   xmlns:dc="http://purl.org/dc/elements/1.1/"
   xmlns:cc="http://creativecommons.org/ns#"
   xmlns:rdf="http://www.w3.org/1999/02/22-rdf-syntax-ns#"
   xmlns:svg="http://www.w3.org/2000/svg"
   xmlns="http://www.w3.org/2000/svg"
   xmlns:xlink="http://www.w3.org/1999/xlink"
   version="1.1"
   width="60"
   height="60"
   id="svg2">
  <defs
     id="defs4">
    <linearGradient
       id="linearGradient7069">
      <stop
         id="stop7071"
         style="stop-color:#05ff00;stop-opacity:1"
         offset="0" />
      <stop
         id="stop7073"
         style="stop-color:#0d8d0b;stop-opacity:0.79215688"
         offset="1" />
    </linearGradient>
    <linearGradient
       id="linearGradient7063">
      <stop
         id="stop7065"
         style="stop-color:#ff0000;stop-opacity:1"
         offset="0" />
      <stop
         id="stop7067"
         style="stop-color:#9a1a00;stop-opacity:1"
         offset="1" />
    </linearGradient>
    <linearGradient
       id="linearGradient6963">
      <stop
         id="stop6965"
         style="stop-color:#ff0000;stop-opacity:1"
         offset="0" />
      <stop
         id="stop6967"
         style="stop-color:#c8ab37;stop-opacity:1"
         offset="1" />
    </linearGradient>
    <radialGradient
       cx="264.06458"
       cy="334.04584"
       r="223.70009"
       fx="264.06458"
       fy="334.04584"
       id="radialGradient3558"
       xlink:href="#linearGradient3552"
       gradientUnits="userSpaceOnUse"
       gradientTransform="matrix(1,0,0,0.978567,0,7.159658)" />
    <linearGradient
       id="linearGradient2068">
      <stop
         id="stop2070"
         style="stop-color:#00ff00;stop-opacity:1"
         offset="0" />
      <stop
         id="stop2072"
         style="stop-color:#007600;stop-opacity:1"
         offset="1" />
    </linearGradient>
    <linearGradient
       id="linearGradient3552">
      <stop
         id="stop3554"
         style="stop-color:#ff0000;stop-opacity:1"
         offset="0" />
      <stop
         id="stop3556"
         style="stop-color:#910000;stop-opacity:1"
         offset="1" />
    </linearGradient>
    <linearGradient
       id="linearGradient2070">
      <stop
         id="stop2072-9"
         style="stop-color:#ff0000;stop-opacity:1"
         offset="0" />
      <stop
         id="stop2074"
         style="stop-color:#9a1a00;stop-opacity:1"
         offset="1" />
    </linearGradient>
    <linearGradient
       id="linearGradient3528">
      <stop
         id="stop3530"
         style="stop-color:#05ff00;stop-opacity:1"
         offset="0" />
      <stop
         id="stop3532"
         style="stop-color:#0d8d0b;stop-opacity:0.79274613"
         offset="1" />
    </linearGradient>
    <radialGradient
       cx="298.12531"
       cy="350.82419"
       r="340.96289"
       fx="298.12531"
       fy="350.82419"
       id="radialGradient3526"
       xlink:href="#linearGradient3528"
       gradientUnits="userSpaceOnUse"
       gradientTransform="matrix(1,0,0,1.112913,0,-39.61257)" />
    <radialGradient
       cx="264.06458"
       cy="334.04584"
       r="223.70009"
       fx="264.06458"
       fy="334.04584"
       id="radialGradient6980"
       xlink:href="#linearGradient3552"
       gradientUnits="userSpaceOnUse"
       gradientTransform="matrix(1,0,0,0.978567,0,7.159658)" />
    <radialGradient
       cx="298.12531"
       cy="350.82419"
       r="340.96289"
       fx="298.12531"
       fy="350.82419"
       id="radialGradient7018"
       xlink:href="#linearGradient3528"
       gradientUnits="userSpaceOnUse"
       gradientTransform="matrix(1,0,0,1.112913,0,-39.61257)" />
    <radialGradient
       cx="264.06458"
       cy="334.04584"
       r="223.70009"
       fx="264.06458"
       fy="334.04584"
       id="radialGradient3558-4"
       xlink:href="#linearGradient3552-0"
       gradientUnits="userSpaceOnUse"
       gradientTransform="matrix(1,0,0,0.978567,0,7.159658)" />
    <linearGradient
       id="linearGradient2068-6">
      <stop
         id="stop2070-3"
         style="stop-color:#00ff00;stop-opacity:1"
         offset="0" />
      <stop
         id="stop2072-6"
         style="stop-color:#007600;stop-opacity:1"
         offset="1" />
    </linearGradient>
    <linearGradient
       id="linearGradient3552-0">
      <stop
         id="stop3554-2"
         style="stop-color:#ff0000;stop-opacity:1"
         offset="0" />
      <stop
         id="stop3556-0"
         style="stop-color:#910000;stop-opacity:1"
         offset="1" />
    </linearGradient>
    <radialGradient
       cx="298.12531"
       cy="350.82419"
       r="340.96289"
       fx="298.12531"
       fy="350.82419"
       id="radialGradient7134"
       xlink:href="#linearGradient3528"
       gradientUnits="userSpaceOnUse"
       gradientTransform="matrix(1,0,0,1.112913,0,-39.61257)" />
    <radialGradient
       cx="298.12531"
       cy="350.82419"
       r="340.96289"
       fx="298.12531"
       fy="350.82419"
       id="radialGradient7162"
       xlink:href="#linearGradient3528"
       gradientUnits="userSpaceOnUse"
       gradientTransform="matrix(1,0,0,1.112913,0,-39.61257)" />
    <radialGradient
       cx="298.12531"
       cy="350.82419"
       r="340.96289"
       fx="298.12531"
       fy="350.82419"
       id="radialGradient7189"
       xlink:href="#linearGradient3528"
       gradientUnits="userSpaceOnUse"
       gradientTransform="matrix(1,0,0,1.112913,0,-39.61257)" />
    <linearGradient
       id="linearGradient2070-0">
      <stop
         id="stop2072-9-1"
         style="stop-color:#ff0000;stop-opacity:1"
         offset="0" />
      <stop
         id="stop2074-6"
         style="stop-color:#9a1a00;stop-opacity:1"
         offset="1" />
    </linearGradient>
    <linearGradient
       id="linearGradient3528-5">
      <stop
         id="stop3530-9"
         style="stop-color:#05ff00;stop-opacity:1"
         offset="0" />
      <stop
         id="stop3532-7"
         style="stop-color:#0d8d0b;stop-opacity:0.79274613"
         offset="1" />
    </linearGradient>
    <linearGradient
       id="linearGradient7063-7">
      <stop
         id="stop7065-3"
         style="stop-color:#ff0000;stop-opacity:1"
         offset="0" />
      <stop
         id="stop7067-9"
         style="stop-color:#9a1a00;stop-opacity:1"
         offset="1" />
    </linearGradient>
    <linearGradient
       id="linearGradient2070-0-3">
      <stop
         id="stop2072-9-1-9"
         style="stop-color:#ff0000;stop-opacity:1"
         offset="0" />
      <stop
         id="stop2074-6-8"
         style="stop-color:#9a1a00;stop-opacity:1"
         offset="1" />
    </linearGradient>
    <linearGradient
       id="linearGradient3528-5-0">
      <stop
         id="stop3530-9-1"
         style="stop-color:#05ff00;stop-opacity:1"
         offset="0" />
      <stop
         id="stop3532-7-3"
         style="stop-color:#0d8d0b;stop-opacity:0.79274613"
         offset="1" />
    </linearGradient>
    <radialGradient
       cx="255.91985"
       cy="350.9491"
       r="200.03436"
       fx="255.91985"
       fy="350.9491"
       id="radialGradient7271"
       xlink:href="#linearGradient7069-9"
       gradientUnits="userSpaceOnUse"
       gradientTransform="matrix(0.10436701,0,0,0.13206351,35.785628,350.8957)" />
    <linearGradient
       id="linearGradient7069-9">
      <stop
         id="stop7071-4"
         style="stop-color:#05ff00;stop-opacity:1"
         offset="0" />
      <stop
         id="stop7073-7"
         style="stop-color:#0d8d0b;stop-opacity:0.79215688"
         offset="1" />
    </linearGradient>
    <radialGradient
       cx="356.63849"
       cy="420.37048"
       r="312.88068"
       fx="356.63849"
       fy="420.37048"
       id="radialGradient7020-5"
       xlink:href="#linearGradient2070-0-3-9"
       gradientUnits="userSpaceOnUse"
       gradientTransform="matrix(0.420135,0,0,0.457467,94.65933,78.20887)" />
    <linearGradient
       id="linearGradient2070-0-3-9">
      <stop
         id="stop2072-9-1-9-9"
         style="stop-color:#ff0000;stop-opacity:1"
         offset="0" />
      <stop
         id="stop2074-6-8-8"
         style="stop-color:#9a1a00;stop-opacity:1"
         offset="1" />
    </linearGradient>
    <radialGradient
       cx="298.12531"
       cy="350.82419"
       r="340.96289"
       fx="298.12531"
       fy="350.82419"
       id="radialGradient7192-6"
       xlink:href="#linearGradient3528-5-0-3"
       gradientUnits="userSpaceOnUse"
       gradientTransform="matrix(0.06955904,0,0,0.07741316,42.213849,368.35144)" />
    <linearGradient
       id="linearGradient3528-5-0-3">
      <stop
         id="stop3530-9-1-5"
         style="stop-color:#05ff00;stop-opacity:1"
         offset="0" />
      <stop
         id="stop3532-7-3-3"
         style="stop-color:#0d8d0b;stop-opacity:0.79274613"
         offset="1" />
    </linearGradient>
  </defs>
  <metadata
     id="metadata7">
    <rdf:RDF>
      <cc:Work
         rdf:about="">
        <dc:format>image/svg+xml</dc:format>
        <dc:type
           rdf:resource="http://purl.org/dc/dcmitype/StillImage" />
        <dc:title></dc:title>
      </cc:Work>
    </rdf:RDF>
  </metadata>
  <g
     transform="translate(76.120377,-611.32601)"
     id="layer1">
    <g
       transform="translate(-107.8156,247.96302)"
       id="layer1-5">
      <path
         d="m 548.57143,432.36218 a 199.28572,188.57143 0 1 1 -398.57145,0 199.28572,188.57143 0 1 1 398.57145,0 z"
         transform="matrix(0.16559139,0,0,0.17500001,6.856518,320.6996)"
         id="path7215"
         style="fill:none" />
      <path
         d="m 76.955483,421.86019 c -0.42555,-0.2948 -0.15817,-1.61146 0.90098,-4.43661 0.28685,-0.76515 0.5611,-1.56144 0.60944,-1.76953 l 0.0879,-0.37835 -0.5144,-0.4924 c -0.62389,-0.59722 -1.66438,-1.43688 -4.096689,-3.30596 -2.836222,-2.17948 -5.542618,-4.38439 -6.988911,-5.69391 -0.70307,-0.63658 -0.974677,-0.80015 -1.162093,-0.69985 -0.255066,0.13651 -2.082648,2.03307 -4.932158,5.11831 -5.32521,5.76574 -8.473447,9.0929 -8.942311,9.45052 l -0.241426,0.18415 -0.256841,-0.17107 c -1.384601,-0.92217 -6.809922,-5.82852 -8.195733,-7.41174 -0.516918,-0.59056 -0.929885,-1.29602 -0.929885,-1.5885 0,-0.0895 0.06652,-0.22932 0.147829,-0.31063 0.130198,-0.13019 0.198647,-0.1426 0.573864,-0.10403 0.497505,0.0511 1.806758,0.38894 3.268139,0.8432 1.321734,0.41086 1.589637,0.44402 2.026359,0.25083 0.494777,-0.21886 0.982643,-0.76022 3.877381,-4.30258 4.645463,-5.68476 4.783383,-5.87619 4.783383,-6.63947 0,-0.53416 -0.1285,-0.76967 -0.524557,-0.9614 -0.428554,-0.20746 -0.722526,-0.16684 -1.72288,0.23801 -0.441878,0.17883 -0.973236,0.36077 -1.180792,0.40431 -0.338774,0.0711 -0.421245,0.0627 -0.80625,-0.0812 -0.235879,-0.0882 -1.109029,-0.56652 -1.940334,-1.0629 -0.831301,-0.49638 -2.387904,-1.40429 -3.459115,-2.01757 -2.888037,-1.65344 -3.101415,-1.80534 -3.201251,-2.2788 -0.09853,-0.46729 -0.561169,-0.98404 -2.085234,-2.3291 -2.593995,-2.28933 -3.104842,-3.04734 -2.681754,-3.97924 0.292825,-0.64499 1.353773,-1.87352 1.826885,-2.11545 0.331602,-0.16958 0.904435,-0.17007 1.272224,-10e-4 0.434962,0.19984 1.102787,0.73522 2.050167,1.64357 1.606341,1.54016 2.07291,1.87556 3.236319,2.32646 0.420831,0.16311 1.485085,0.60157 2.365006,0.97436 0.879921,0.3728 1.740715,0.72885 1.912876,0.79123 0.568726,0.20609 1.542407,0.46336 1.753633,0.46336 0.561491,0 1.146189,-0.54555 2.324973,-2.16929 0.812883,-1.11972 1.144861,-1.53376 2.123891,-2.64889 0.607486,-0.69194 1.101199,-1.41253 1.101199,-1.60724 0,-0.23528 -0.275176,-0.58449 -0.663894,-0.8425 -0.36362,-0.24136 -0.628086,-0.36198 -1.377173,-0.62813 -0.463663,-0.16473 -1.274702,-0.72016 -1.672354,-1.14528 -0.181903,-0.19447 -0.413721,-0.53257 -0.515155,-0.75133 -0.265614,-0.57286 -0.260711,-1.48179 0.01577,-2.92251 l 0.204189,-1.06403 -0.71755,-0.72 -0.717552,-0.72 0.235125,-0.21538 c 0.283488,-0.25967 0.997951,-0.63356 1.210682,-0.63356 0.328918,0 0.707223,-0.40391 1.270419,-1.3564 0.735537,-1.24396 0.827074,-1.43837 0.709542,-1.50701 -1.856897,-1.08434 -3.682629,-2.40934 -3.741569,-2.71539 -0.03422,-0.17769 0.256186,-0.39351 0.598591,-0.44486 0.746126,-0.11189 1.89083,0.0677 3.674416,0.5766 l 1.12195,0.32009 0.474522,-0.5145 c 1.123448,-1.21808 1.599096,-1.59266 2.022418,-1.59266 0.104645,0 1.459685,0.59103 3.011199,1.3134 1.551515,0.72237 3.90084,1.80818 5.220724,2.41291 1.319881,0.60472 2.412203,1.10862 2.427381,1.11977 0.02136,0.0157 -0.163821,2.38846 -0.223941,2.86924 -0.008,0.0642 0.74144,0.47659 2.149191,1.1825 2.761605,1.3848 3.392915,1.83207 3.094115,2.1921 -0.24274,0.29249 -2.30336,0.31318 -4.096787,0.0412 -1.060474,-0.16086 -1.707807,-0.17765 -1.958778,-0.0508 -0.513916,0.25972 -3.27885,4.35565 -3.386007,5.01598 -0.04227,0.26047 0.296813,1.05265 1.699946,3.97154 1.146343,2.38471 1.760636,3.83201 2.332363,5.49517 0.249879,0.72689 0.554422,1.58164 0.676764,1.89945 0.582983,1.51441 2.387439,3.65474 7.928289,9.404 4.99807,5.18609 5.92574,6.19588 6.16643,6.71235 0.18912,0.40582 0.20957,0.85559 0.0538,1.18381 -0.62666,1.32059 -6.62776,6.93836 -8.33709,7.80454 -0.36056,0.18271 -1.11127,0.2881 -1.26981,0.17827 z"
         id="path1318"
         style="fill:url(#radialGradient7192-6);fill-opacity:1" />
    </g>
  </g>
</svg>
