<?xml version="1.0" encoding="UTF-8" standalone="no"?>
<!DOCTYPE svg PUBLIC "-//W3C//DTD SVG 1.1//EN" "http://www.w3.org/Graphics/SVG/1.1/DTD/svg11.dtd">
<svg width="80px" height="80px" viewBox="0 0 60 60" version="1.1" xmlns="http://www.w3.org/2000/svg" xmlns:xlink="http://www.w3.org/1999/xlink" xml:space="preserve" xmlns:serif="http://www.serif.com/" style="fill-rule:evenodd;clip-rule:evenodd;stroke-linejoin:round;stroke-miterlimit:1.41421;">
    <g transform="matrix(1,0,0,1,1,1)">
        <g transform="matrix(1,0,0,1,1,-4)">
            <circle cx="28" cy="15" r="9" style="fill:rgb(51,51,51);"/>
        </g>
        <g transform="matrix(1,0,0,1,-1,-1)">
            <path d="M23.629,21.706C25.36,23.139 27.58,24 30,24C32.42,24 34.64,23.139 36.371,21.706C40.898,25.428 44,32.991 44,41.707C44,48.118 42.321,53.906 39.631,58L20.369,58C17.679,53.906 16,48.118 16,41.707C16,32.991 19.102,25.428 23.629,21.706Z" style="fill:rgb(51,51,51);"/>
        </g>
    </g>
</svg>
