<?xml version="1.0" encoding="iso-8859-1"?>
<!-- Generator: Adobe Illustrator 19.0.0, SVG Export Plug-In . SVG Version: 6.00 Build 0)  -->
<svg xmlns="http://www.w3.org/2000/svg" xmlns:xlink="http://www.w3.org/1999/xlink" version="1.1" id="Capa_1" x="0px" y="0px" viewBox="0 0 512 512" style="enable-background:new 0 0 512 512;" xml:space="preserve" width="80px" height="80px">
<g>
	<g>
		<path d="M476.014,180.001l-93.05-27.197l-0.38-0.105c-2.816-0.744-5.794-0.744-8.61,0l-22.125,6.465V70.247    C351.85,24.13,268.103,0,185.375,0C102.648,0,18.901,24.13,18.901,70.247v371.507c0,46.118,83.747,70.246,166.474,70.246    c82.728,0,166.475-24.13,166.475-70.246v-24.057l1.378,0.811l0.841,0.459c7.58,3.826,15.895,5.739,24.211,5.739    c8.316,0,16.631-1.913,24.211-5.739l0.429-0.216l61.203-35.973c17.887-9.241,28.977-27.431,28.977-47.598V202.423    C493.098,191.957,486.085,182.773,476.014,180.001z M83.398,45.258c27.006-9.85,63.222-15.276,101.977-15.276    c38.754,0,74.97,5.426,101.978,15.276c23.714,8.65,34.514,19.017,34.514,24.989c0,5.971-10.802,16.338-34.514,24.988    c-27.007,9.85-63.223,15.276-101.978,15.276c-38.755,0-74.971-5.426-101.978-15.276c-23.713-8.65-34.513-19.017-34.513-24.988    C48.883,64.275,59.684,53.908,83.398,45.258z M48.882,112.218c31.718,18.668,84.304,28.274,136.492,28.274    c52.189,0,104.774-9.606,136.493-28.274v55.707l-41.322,12.076c-9.082,2.5-15.658,10.219-16.865,19.385    c-23.241,5.533-49.884,8.441-77.805,8.441c-38.755,0-74.971-5.426-101.978-15.276c-23.714-8.65-34.514-19.016-34.514-24.988    c0-1.307-0.185-2.569-0.5-3.779V112.218z M48.882,209.239c31.664,18.862,84.528,28.57,136.991,28.57    c27.422,0,53.853-2.633,77.587-7.657v62.629c-23.081,5.369-50.339,8.291-78.085,8.291c-38.754,0-74.971-5.426-101.978-15.276    c-23.714-8.65-34.514-19.017-34.514-24.988V209.239z M48.882,302.78L48.882,302.78c31.719,18.668,84.305,28.274,136.493,28.274    c27.742,0,54.344-2.601,78.086-7.563v11.689c0,18.625,9.463,35.558,25,45.318c-25.869,10.13-62.707,16.069-102.587,16.069    c-38.755,0-74.971-5.426-101.977-15.276c-23.714-8.65-34.514-19.017-34.514-24.989c0-1.307-0.185-2.569-0.5-3.779V302.78z     M287.353,466.742c-27.007,9.85-63.223,15.276-101.978,15.276c-38.755,0-74.971-5.426-101.978-15.276    c-23.714-8.65-34.514-19.017-34.514-24.988v-43.776c31.664,18.863,84.528,28.571,136.991,28.571    c54.678,0,103.633-10.296,133.709-27.816l2.284,1.342v41.679h0.001C321.868,447.725,311.066,458.092,287.353,466.742z     M450.15,356.247l-0.429,0.216l-61.12,35.924c-6.496,3.133-14.15,3.133-20.646,0l-60.707-35.681l-0.841-0.459    c-7.997-4.037-12.965-12.11-12.965-21.067V211.356c0-0.002,0-0.004,0-0.006v-3.882l47.826-13.979    c0.023-0.007,0.047-0.013,0.07-0.021l36.94-10.798l84.836,24.797v127.711h0.001C463.116,344.137,458.148,352.21,450.15,356.247z" fill="#333333"/>
	</g>
</g>
<g>
	<g>
		<path d="M433.265,249.929c-5.624-6.076-15.109-6.445-21.184-0.822l-50.632,46.852l-16.551-16.549    c-5.854-5.855-15.346-5.855-21.2,0c-5.855,5.853-5.855,15.345,0,21.2l26.747,26.748c0.128,0.128,0.267,0.237,0.398,0.36    c0.184,0.171,0.367,0.343,0.557,0.503c0.208,0.175,0.422,0.337,0.637,0.499c0.195,0.147,0.389,0.297,0.59,0.434    c0.227,0.155,0.461,0.295,0.695,0.436c0.198,0.12,0.395,0.243,0.598,0.353c0.251,0.136,0.507,0.254,0.764,0.375    c0.196,0.092,0.389,0.19,0.588,0.273c0.276,0.115,0.557,0.211,0.837,0.309c0.188,0.066,0.373,0.139,0.563,0.197    c0.304,0.093,0.612,0.163,0.92,0.236c0.173,0.041,0.344,0.092,0.518,0.126c0.348,0.069,0.7,0.115,1.05,0.159    c0.138,0.017,0.275,0.046,0.413,0.06c0.491,0.048,0.983,0.074,1.476,0.074c0.001,0,0.001,0,0.002,0c0.001,0,0.001,0,0.002,0    c0.469,0,0.936-0.024,1.403-0.067c0.132-0.012,0.262-0.038,0.394-0.054c0.335-0.04,0.669-0.082,1-0.145    c0.165-0.031,0.326-0.077,0.49-0.114c0.296-0.066,0.592-0.131,0.883-0.216c0.18-0.052,0.357-0.118,0.535-0.177    c0.27-0.089,0.541-0.177,0.807-0.282c0.189-0.075,0.374-0.163,0.56-0.246c0.249-0.11,0.497-0.219,0.74-0.344    c0.193-0.099,0.381-0.21,0.571-0.318c0.228-0.13,0.456-0.259,0.679-0.401c0.192-0.123,0.378-0.257,0.565-0.389    c0.213-0.15,0.424-0.301,0.631-0.464c0.182-0.143,0.358-0.296,0.534-0.449c0.128-0.111,0.262-0.21,0.388-0.326l61.216-56.647    C438.521,265.49,438.888,256.005,433.265,249.929z" fill="#333333"/>
	</g>
</g>
<g>
</g>
<g>
</g>
<g>
</g>
<g>
</g>
<g>
</g>
<g>
</g>
<g>
</g>
<g>
</g>
<g>
</g>
<g>
</g>
<g>
</g>
<g>
</g>
<g>
</g>
<g>
</g>
<g>
</g>
</svg>
