<?xml version="1.0" encoding="iso-8859-1"?>
<!-- Generator: Adobe Illustrator 16.0.0, SVG Export Plug-In . SVG Version: 6.00 Build 0)  -->
<!DOCTYPE svg PUBLIC "-//W3C//DTD SVG 1.1//EN" "http://www.w3.org/Graphics/SVG/1.1/DTD/svg11.dtd">
<svg version="1.1" id="Capa_1" xmlns="http://www.w3.org/2000/svg" xmlns:xlink="http://www.w3.org/1999/xlink" x="0px" y="0px"
	 width="79.536px" height="79.537px" viewBox="0 0 79.536 79.537" style="enable-background:new 0 0 79.536 79.537;"
	 xml:space="preserve">
<g>
	<path fill="rgb(51,51,51)" d="M67.187,20.537H55.008V5.981H24.529v14.556H12.35C5.562,20.537,0,26.098,0,32.886v28.319
		c0,6.788,5.562,12.35,12.35,12.35h54.836c6.788,0,12.35-5.562,12.35-12.35V32.886C79.536,26.098,73.975,20.537,67.187,20.537z
		 M35.654,50.595h-9.147v9.135h-7.083v-9.135h-9.142v-7.078h9.142v-9.143h7.083v9.143h9.147V50.595z M49.327,20.537h-19.12v-8.878
		h19.115v8.878H49.327z"/>
</g>

</svg>
