<?xml version="1.0" encoding="iso-8859-1"?>
<!-- Generator: Adobe Illustrator 19.0.0, SVG Export Plug-In . SVG Version: 6.00 Build 0)  -->
<svg version="1.1" id="Capa_1" xmlns="http://www.w3.org/2000/svg" xmlns:xlink="http://www.w3.org/1999/xlink" x="0px" y="0px"
	 viewBox="0 0 469.333 469.333" style="enable-background:new 0 0 469.333 469.333;" xml:space="preserve" width="60px" height="60px">
<g>
	<g>
		<path fill="rgb(183,6,24)" d="M426.667,0h-384C19.135,0,0,19.135,0,42.667v384c0,23.531,19.135,42.667,42.667,42.667h384
			c23.531,0,42.667-19.135,42.667-42.667v-384C469.333,19.135,450.198,0,426.667,0z M384,288c0,5.896-4.771,10.667-10.667,10.667
			h-74.667v74.667c0,5.896-4.771,10.667-10.667,10.667H181.333c-5.896,0-10.667-4.771-10.667-10.667v-74.667H96
			c-5.896,0-10.667-4.771-10.667-10.667V181.333c0-5.896,4.771-10.667,10.667-10.667h74.667V96c0-5.896,4.771-10.667,10.667-10.667
			H288c5.896,0,10.667,4.771,10.667,10.667v74.667h74.667c5.896,0,10.667,4.771,10.667,10.667V288z"/>
	</g>
</g>

</svg>
