<?xml version="1.0" encoding="utf-8"?>
<svg xmlns="http://www.w3.org/2000/svg" width="80px" height="80px" viewBox="0 0 128 128">
  <g>
    <path id="path1" transform="rotate(0,64,64) translate(0.698001861572266,0) scale(4,4)  " fill="rgb(51,51,51)" d="M22.92401,0C26.382994,0,29.291014,0.56800086,31.650999,1.709999L30.535002,5.6339994C28.269011,4.2140012 25.693999,3.5029987 22.81201,3.5029989 19.690001,3.5029987 17.067015,4.0740019 14.949004,5.2130018 13.68399,5.8899999 12.537994,6.843999 11.519988,8.0830007 10.475005,9.3639999 9.863006,10.583002 9.6749872,11.735002L28.699004,11.735002 27.943999,14.564001 9.2300103,14.564001C9.2109979,14.859003 9.2040094,15.141 9.2040094,15.408002 9.2040094,16.491003 9.2109979,17.138002 9.2300103,17.352003L27.187987,17.352003 26.408995,20.179002 9.817016,20.179002C10.597991,23.402004 12.475005,25.689003 15.450012,27.040004 17.588011,28.010002 19.902006,28.497005 22.390013,28.497005 25.869994,28.497005 28.587004,27.806003 30.535002,26.427002L30.535002,30.775001C28.213011,31.592002 25.647002,32 22.837004,32 14.434997,32 8.7569879,29.355003 5.8020018,24.063003 5.2070006,22.994003 4.692993,21.701004 4.2669981,20.179002L0,20.179002 0.77999879,17.352003 3.7120055,17.352003C3.6520081,16.761003 3.623993,16.12 3.6239928,15.429002 3.623993,15.148 3.6329957,14.859003 3.6520079,14.564001L0,14.564001 0.77999879,11.735002 4.0150145,11.735002C5.1679991,7.1479998 8.1719964,3.8550001 13.022003,1.8569984 16.016997,0.61899955 19.317015,0 22.92401,0z" />
  </g>
</svg>

