<?xml version="1.0"?>
<!DOCTYPE svg PUBLIC "-//W3C//DTD SVG 1.1//EN"
  "http://www.w3.org/Graphics/SVG/1.1/DTD/svg11.dtd">

<svg version="1.1" xmlns="http://www.w3.org/2000/svg" width="80px" height="80px" viewBox="0 0 440.994 440.994" >
	<g transform="translate(16.000000, 15.000000) rotate(-12 100 100)">
		<text x="10 130 240 350" y="160" style="font-size:160px;font-family: sans-serif; font-weight:bold; stroke:rgb(181,5,14);stroke-width:1;fill:rgb(181,5,14)" >
			NEU!
		</text>
	</g>
</svg>