<?xml version="1.0" encoding="utf-8"?>
<svg xmlns="http://www.w3.org/2000/svg" width="80px" height="80px" viewBox="0 0 128 128">
  <g>
    <path id="path1" transform="rotate(0,64,64) translate(7.8859977722168,0) scale(4,4)  " fill="rgb(51,51,51)" d="M0,7.2750244L14.028989,13.947998 28.057001,7.2750244 27.067011,14.288025 27.017999,14.273987C26.731989,14.200012 26.432001,14.161011 26.12298,14.161011 24.143976,14.161011 22.54101,15.765015 22.54101,17.744019 22.54101,19.661011 24.044977,21.226013 25.93902,21.322021L26.073969,21.325989 25.401972,26.085022 14.028989,32 2.6539913,26.085022 1.9819941,21.317017 2.0919796,21.309021C3.8980096,21.125 5.3079823,19.598999 5.3079823,17.744019 5.3079823,15.765015 3.7039788,14.161011 1.7249751,14.161011 1.4780272,14.161011 1.2369993,14.185974 1.0029907,14.234009L0.9829712,14.239014z M14.265012,0C18.426998,0 21.801019,3.3740234 21.801019,7.5360107 21.801019,7.822998 21.783014,8.1049805 21.750971,8.3850098L14.028989,12.057983 6.8090194,8.6240234C6.757994,8.2689819 6.7299789,7.9060059 6.7299789,7.5360107 6.7299789,3.3740234 10.104002,0 14.265012,0z" />
  </g>
</svg>

