<?xml version="1.0" encoding="utf-8"?>
<svg xmlns="http://www.w3.org/2000/svg" width="80px" height="80px" viewBox="0 0 128 128">
  <g>
    <path id="path1" transform="rotate(0,64,64) translate(8.58599523222418,0) scale(4.00000023841859,4.00000023841859)  " fill="rgb(255,255,255)" d="M13.852997,10.320002C8.719002,10.320002,5.1340029,15.430001,6.4449999,20.539983L13.852997,17.694984z M13.852997,8.3099932C14.065003,8.3099932 14.277001,8.320003 14.486,8.3350023 15.529999,8.3999895 16.529,8.6300005 17.459999,8.9949907 17.832001,9.139995 18.193001,9.3099932 18.542,9.4999956 18.82,9.6499895 19.090996,9.8149981 19.353997,9.9900011 19.875,10.344996 20.362999,10.749995 20.807999,11.195002 22.588997,12.975 23.691002,15.430001 23.691002,18.150001 23.691002,20.864995 22.588997,23.324985 20.807999,25.104984 20.362999,25.549991 19.875,25.953983 19.353997,26.304996 19.090996,26.479984 18.821999,26.649997 18.542,26.794986 18.193001,26.989993 17.832001,27.155002 17.459999,27.298982 16.529,27.668977 15.529999,27.898988 14.486,27.963991 14.277001,27.974 14.065003,27.98398 13.852997,27.98398 12.154,27.98398 10.558998,27.554994 9.1640017,26.794986 8.8870013,26.649997 8.6159976,26.479984 8.3519976,26.304996 7.8310015,25.953983 7.3430026,25.549991 6.8980029,25.104984 5.1179965,23.324985 4.0159991,20.864995 4.0159991,18.150001 4.0159991,15.430001 5.1179965,12.975 6.8980029,11.195002 7.3430026,10.749995 7.8290026,10.344996 8.3519976,9.9900011 8.6159976,9.8149981 8.8840029,9.6499895 9.1640017,9.4999956 10.558998,8.7449907 12.154,8.3099932 13.852997,8.3099932z M13.852997,6.6450013C11.859001,6.6450013 9.9779971,7.1600002 8.3420031,8.0550045 7.3619997,8.5949968 6.4720004,9.264995 5.693001,10.055004 3.6279986,12.134989 2.3499987,14.994988 2.3499989,18.150001 2.3499987,24.494998 7.5110018,29.649995 13.852997,29.649995 20.197998,29.649995 25.357002,24.494998 25.357002,18.150001 25.357002,11.805003 20.197998,6.6450013 13.852997,6.6450013z M5.4440005,3.8699931C6.2170031,3.8699934 6.9229968,4.1499919 7.4649966,4.6199931 5.6139986,5.4949927 3.9729998,6.7459988 2.6320004,8.2660021 2.450001,7.8709983 2.3439982,7.4309963 2.3439984,6.9710049 2.3439982,5.2550024 3.7309992,3.8699934 5.4440005,3.8699931z M10.306999,0L17.398003,0C17.796997,0 18.120003,0.43000774 18.120003,0.94999645 18.120003,1.4750054 17.796997,1.899993 17.398003,1.8999929L16.197998,1.8999929 16.197998,4.499998C22.733002,5.6099981 27.707001,11.299998 27.707001,18.150001 27.707001,25.799991 21.503998,31.999999 13.852997,31.999999 6.2040026,31.999999 2.3576422E-07,25.799991 0,18.150001 2.3576422E-07,14.729988 1.2399981,11.609995 3.2889981,9.195003 4.6159976,7.6249966 6.2849963,6.3650026 8.1780016,5.5149969 9.2259982,5.0399908 10.342003,4.6950049 11.509003,4.499998L11.509003,1.8999929 10.306999,1.8999929C9.9109957,1.899993 9.5869982,1.4750054 9.5869982,0.94999645 9.5869982,0.43000774 9.9109957,0 10.306999,0z" />
  </g>
</svg>

