<?xml version="1.0" encoding="iso-8859-1"?>
<!-- Generator: Adobe Illustrator 19.0.0, SVG Export Plug-In . SVG Version: 6.00 Build 0)  -->
<svg version="1.1" id="Layer_1" xmlns="http://www.w3.org/2000/svg" xmlns:xlink="http://www.w3.org/1999/xlink" x="0px" y="0px"
	 width="80px" height="80px" viewBox="0 0 512.595 512.595" style="enable-background:new 0 0 512.595 512.595;" xml:space="preserve">
<g>
	<path style="fill:#415A6B;" d="M324.661,511.231l-4.267-16c35.2-9.6,49.067-118.4,10.667-259.2
		C293.728,95.231,227.595,7.764,192.395,17.364l-4.267-16c56.533-14.933,125.867,104.533,158.933,230.4
		S382.261,495.231,324.661,511.231z"/>
	<path style="fill:#415A6B;" d="M461.195,362.964c-54.4,14.933-145.067,7.467-229.333-14.933
		c-67.2-18.133-126.933-43.733-170.667-71.467c-45.867-29.867-67.2-60.8-59.733-87.467l16,3.2
		c-4.267,18.133,14.933,43.733,53.333,69.333c41.6,27.733,100.267,52.267,165.333,69.333c140.8,37.333,249.6,24.533,259.2-11.733
		l16,4.267C505.995,342.698,487.861,355.498,461.195,362.964z"/>
	<path style="fill:#415A6B;" d="M69.728,442.964c-41.6-41.6,27.733-161.067,119.467-252.8s211.2-162.133,253.867-120.533
		l-11.733,11.733c-25.6-25.6-126.933,17.067-229.333,120.533S55.861,405.631,81.461,431.231L69.728,442.964z"/>
</g>
<path style="fill:#8AD7F8;" d="M481.461,195.498c33.067,123.733-40.533,251.733-164.267,285.867S65.461,440.831,31.328,317.098
	S71.861,65.364,195.595,31.231S447.328,71.764,481.461,195.498z"/>
<g>
	<path style="fill:#F3F3F3;" d="M176.395,464.298c-3.2-1.067-3.2-2.133-2.133-5.333c1.067-1.067,1.067-3.2,1.067-5.333
		c-1.067-2.133-2.133-4.267-3.2-6.4c4.267-2.133,5.333-3.2,5.333-7.467c1.067-1.067,2.133-1.067,2.133-2.133
		c1.067-1.067,2.133-2.133,2.133-2.133c2.133-3.2,1.067-4.267-1.067-6.4c-1.067-1.067-1.067-1.067-2.133-2.133
		c2.133-1.067,6.4-1.067,7.467-3.2c3.2-7.467,7.467-13.867,5.333-24.533c0-1.067,0-3.2,0-4.267c1.067-4.267,3.2-7.467,6.4-9.6
		c3.2-1.067,4.267-4.267,5.333-7.467c1.067-4.267,1.067-9.6,0-13.867c-2.133-4.267-1.067-8.533,0-12.8
		c1.067-1.067,1.067-3.2,1.067-4.267c1.067-4.267,2.133-8.533,2.133-12.8c0-2.133-1.067-5.333-3.2-5.333c-3.2,0-6.4-3.2-8.533-5.333
		c-1.067-1.067-2.133-1.067-4.267-2.133c-3.2-1.067-6.4,1.067-9.6-2.133c-2.133-2.133-4.267-1.067-6.4-1.067
		c-4.267-5.333-8.533-11.733-12.8-17.067l-1.067-1.067c-5.333-1.067-9.6-5.333-12.8-9.6c-3.2-3.2-6.4-6.4-9.6-1.067
		c-1.067-1.067-2.133-2.133-3.2-2.133c-3.2,0-6.4,0-9.6,0c0-1.067,0-2.133,0-3.2c-1.067,0-3.2-1.067-4.267,0
		c-3.2,3.2-8.533,4.267-8.533,11.733l0,0c-3.2-2.133-3.2-2.133-6.4-1.067c-2.133,1.067-3.2,2.133-5.333,0
		c-2.133-2.133-2.133-4.267-2.133-7.467c1.067-4.267,0-7.467-3.2-8.533c-2.133-1.067-3.2-1.067-5.333-1.067c-1.067,0-2.133,0-3.2,0
		c0-3.2,1.067-5.333,1.067-7.467c1.067-2.133,1.067-4.267,2.133-7.467c1.067-2.133,0-3.2-2.133-3.2c-4.267,0-6.4,2.133-8.533,6.4
		c-1.067,2.133-2.133,3.2-3.2,4.267c-5.333,2.133-9.6-3.2-8.533-11.733c0-3.2,1.067-6.4,1.067-9.6
		c1.067-7.467,5.333-11.733,11.733-11.733c2.133,0,4.267,1.067,5.333-3.2l1.067-1.067c6.4,0,7.467,0,9.6,8.533
		c0,1.067,0,2.133,1.067,3.2c1.067,1.067,2.133,2.133,3.2,3.2c1.067-1.067,2.133-2.133,2.133-3.2c0-3.2,0-6.4,0-8.533
		c-2.133-6.4-1.067-11.733,4.267-14.933c2.133-1.067,3.2-2.133,4.267-4.267c1.067-2.133,2.133-4.267,2.133-6.4
		c0-7.467,3.2-10.667,6.4-14.933c2.133-2.133,3.2-4.267,5.333-6.4c3.2-3.2,6.4-6.4,8.533-10.667c0,0,1.067,0,2.133,0
		c-1.067,1.067-2.133,3.2-3.2,4.267c3.2,1.067,12.8-5.333,14.933-10.667c-2.133,1.067-4.267,1.067-6.4,1.067s-3.2-1.067-2.133-4.267
		c0-1.067,0-3.2,0-3.2c-1.067-1.067-2.133-1.067-3.2-1.067c-1.067,0-3.2,2.133-5.333,3.2c3.2-3.2,5.333-5.333,9.6-6.4
		c3.2,0,6.4-2.133,8.533-3.2c1.067,0,1.067-1.067,2.133-1.067c-1.067,3.2-2.133,5.333-3.2,8.533v1.067c0,0,1.067,1.067,2.133,1.067
		c2.133-1.067,3.2,0,5.333,1.067s5.333,0,6.4-2.133c1.067-3.2,0-5.333-3.2-6.4c-1.067,0-1.067-2.133-1.067-3.2
		c0-2.133,1.067-3.2,1.067-5.333c1.067-3.2,0-6.4-3.2-7.467s-4.267-3.2-4.267-7.467c0-6.4-3.2-8.533-7.467-5.333
		c-1.067,1.067-2.133,0-3.2,0c1.067-4.267-2.133-4.267-3.2-6.4c-1.067-2.133-8.533-2.133-9.6,0c-1.067,3.2-3.2,5.333-4.267,8.533
		c-1.067,1.067-1.067,3.2-1.067,5.333c0,3.2,0,5.333-2.133,6.4c-1.067,4.267-2.133,7.467-2.133,11.733
		c0,1.067-1.067,2.133-2.133,3.2l-1.067-1.067c0-2.133,1.067-4.267,1.067-6.4c0-1.067-1.067-3.2-1.067-3.2
		c-3.2-1.067-6.4-2.133-10.667-4.267c-1.067,0-2.133-1.067-3.2-1.067c0-2.133-1.067-6.4,0-7.467
		c5.333-5.333,11.733-10.667,17.067-16l0,0c-1.067,1.067-1.067,3.2-2.133,4.267c2.133,2.133,4.267,2.133,5.333,0
		c0,0,1.067,0,1.067-1.067c1.067-1.067,2.133-2.133,4.267-2.133c-1.067-1.067-2.133-3.2-3.2-4.267
		c4.267-2.133,7.467-7.467,7.467-9.6c-1.067-1.067-1.067-1.067-2.133-2.133v-1.067c3.2,1.067,6.4,1.067,9.6,2.133
		c2.133,1.067,2.133,3.2,0,5.333c-1.067,1.067-3.2,2.133-4.267,2.133c-2.133,1.067-4.267,2.133-4.267,5.333c1.067,0,2.133,0,2.133,0
		c2.133-1.067,4.267,0,6.4,3.2c1.067,1.067,2.133,2.133,3.2,3.2c2.133,1.067,4.267,0,6.4-2.133c3.2-3.2,5.333-4.267,2.133-9.6
		c4.267,2.133,6.4,1.067,9.6-5.333c-1.067,0-2.133-1.067-3.2-1.067c-2.133-1.067-4.267-2.133-4.267-6.4
		c0-1.067-1.067-2.133-2.133-3.2c-3.2-2.133-6.4-3.2-10.667-5.333c1.067-1.067,1.067-2.133,2.133-3.2v-1.067
		c-3.2,0-5.333,0-8.533-1.067c7.467,0,14.933-3.2,21.333-8.533c0,5.333,1.067,7.467,5.333,7.467c2.133,0,4.267-1.067,6.4-1.067
		c4.267,0,6.4,3.2,5.333,7.467c0,1.067,0,1.067,0,2.133c1.067,1.067,3.2,1.067,4.267,2.133c-2.133,1.067-4.267,2.133-5.333,3.2
		v1.067c1.067,0,2.133,1.067,3.2,1.067c-1.067,1.067-2.133,2.133-2.133,3.2c-1.067,2.133-2.133,4.267-2.133,5.333
		c1.067,4.267,3.2,9.6,4.267,13.867l1.067,1.067c2.133,0,5.333,1.067,7.467,0c1.067,0,2.133-3.2,3.2-4.267
		c1.067-2.133,2.133-4.267,3.2-5.333c1.067-1.067,2.133-3.2,4.267-4.267c1.067-1.067,3.2-2.133,4.267-3.2s3.2-1.067,4.267-2.133
		c4.267-5.333,9.6-8.533,16-9.6c2.133,0,3.2-2.133,4.267-3.2v-1.067c-1.067,0-1.067,0-2.133-1.067c3.2-3.2,3.2-3.2,2.133-7.467
		c7.467-5.333,7.467-5.333,5.333-9.6c2.133-1.067,3.2-3.2,1.067-5.333c3.2-2.133,6.4-4.267,9.6-6.4v-1.067
		c-2.133,0-4.267,1.067-6.4,1.067c-3.2,1.067-4.267,1.067-6.4,1.067h-1.067c0-3.2-2.133-2.133-2.133-2.133
		c-7.467,0-14.933,1.067-22.4,2.133c-2.133,0-4.267,2.133-6.4,3.2c-5.333,1.067-10.667,2.133-16,3.2
		c-1.067-1.067-2.133-2.133-3.2-2.133c-12.8-1.067-24.533,1.067-35.2,7.467h-1.067c-3.2,0-6.4,2.133-8.533,5.333
		c1.067,1.067,2.133,2.133,4.267,4.267c-3.2,1.067-6.4,1.067-8.533,2.133c-1.067-2.133-2.133-3.2-3.2-4.267
		c-3.2-1.067-5.333,0-7.467,3.2c2.133,0,4.267,1.067,6.4,1.067c1.067,0,3.2,1.067,3.2,2.133c0,6.4,3.2,5.333,5.333,6.4
		c-2.133,2.133-4.267,4.267-6.4,6.4c-1.067,1.067-1.067,3.2-1.067,4.267c1.067,0,2.133,1.067,3.2,1.067h1.067
		c-1.067,2.133-1.067,3.2-2.133,3.2c-2.133,0-4.267-1.067-6.4-2.133c2.133-5.333,3.2-10.667,8.533-12.8
		c-3.2-1.067-6.4,1.067-8.533,4.267c-1.067,1.067-2.133,2.133-2.133,3.2c1.067-1.067,2.133-4.267,3.2-7.467c1.067,0,2.133,0,3.2,0
		c1.067,0,1.067-1.067,2.133-2.133c-1.067-1.067-1.067-3.2-2.133-3.2c-2.133,0-5.333,0-7.467,0c-1.067,0-1.067,2.133-2.133,2.133
		c1.067,1.067,2.133,1.067,2.133,2.133c1.067,0,1.067,0,2.133,1.067c-3.2,2.133-6.4,3.2-9.6,5.333c3.2,3.2,6.4,4.267,8.533,3.2
		c-3.2,3.2-7.467,7.467-10.667,10.667c0,0-1.067,0-2.133,0c-2.133,0-4.267-1.067-6.4-1.067c2.133-1.067,3.2-1.067,5.333-1.067
		c1.067,0,2.133-2.133,2.133-3.2c0-3.2,1.067-6.4,1.067-9.6c-2.133-2.133-4.267,0-6.4,2.133c-3.2,2.133-6.4,1.067-9.6,0
		c-1.067-2.133-2.133-2.133-4.267-2.133c-3.2,3.2-6.4,7.467-9.6,11.733c1.067,0,2.133,0,3.2-1.067c1.067,0,1.067-1.067,2.133-1.067
		c0,0,1.067,0,1.067,1.067c0,2.133-4.267,0-2.133,4.267c3.2,1.067,5.333,1.067,8.533,2.133c0,0-4.267,0-7.467-3.2
		c-2.133,0-4.267,0-7.467,0c-24.533,32-40.533,70.4-46.933,110.933c1.067,1.067,2.133,2.133,3.2,3.2c4.267,3.2,7.467,9.6,6.4,17.067
		c0,1.067,0,2.133,1.067,3.2c2.133,3.2,3.2,6.4,5.333,9.6c1.067,2.133,3.2,3.2,5.333,2.133c-3.2-7.467-6.4-14.933-7.467-23.467
		c1.067,2.133,2.133,4.267,3.2,6.4c1.067,4.267,3.2,8.533,6.4,12.8c2.133,3.2,4.267,6.4,5.333,10.667c0,2.133,1.067,3.2,2.133,4.267
		c3.2,6.4,8.533,9.6,13.867,8.533c6.4-1.067,10.667,3.2,16,6.4c1.067,0,2.133,1.067,2.133,1.067
		c2.133,1.067,4.267,2.133,7.467,4.267c-1.067,2.133-3.2,3.2,0,5.333c2.133,1.067,4.267,3.2,6.4,4.267
		c3.2,3.2,4.267,2.133,6.4-2.133c5.333,8.533,6.4,11.733,2.133,21.333c-2.133,5.333-4.267,9.6-1.067,14.933v1.067
		c0,4.267,1.067,7.467,3.2,10.667c2.133,3.2,5.333,7.467,6.4,10.667c4.267,7.467,8.533,13.867,14.933,18.133
		c5.333,3.2,7.467,8.533,8.533,16c1.067,8.533,3.2,18.133,4.267,26.667c1.067,5.333,1.067,10.667,2.133,16
		c0,1.067,0,2.133,1.067,3.2c1.067,3.2,2.133,6.4,3.2,10.667c0,2.133,1.067,3.2,1.067,5.333c1.067,2.133,2.133,3.2,4.267,0
		c0,3.2,1.067,4.267,1.067,6.4c0,2.133,0,4.267,1.067,6.4c6.4,3.2,11.733,5.333,18.133,7.467c0-2.133,0-4.267,0-5.333
		C178.528,466.431,178.528,465.364,176.395,464.298z"/>
	<path style="fill:#F3F3F3;" d="M447.328,141.098c-2.133,0-4.267,0-7.467,1.067c-2.133,0-4.267,0-5.333,1.067
		c-5.333,0-9.6,1.067-14.933,1.067c-1.067,0-2.133,1.067-2.133,1.067c0,4.267-2.133,3.2-3.2,3.2c-2.133,0-4.267,0-5.333,0
		c-4.267,0-8.533-1.067-12.8,2.133h-1.067c-2.133,0-4.267,1.067-6.4,1.067c-2.133,0-4.267,1.067-6.4,2.133
		c1.067-1.067,1.067-2.133,2.133-3.2c-2.133-3.2-4.267-3.2-6.4-2.133c-3.2,0-6.4,1.067-9.6,2.133
		c-5.333,2.133-9.6,4.267-13.867,7.467c-3.2,2.133-5.333,6.4-8.533,9.6c-1.067,1.067-2.133,2.133-4.267,1.067
		c-2.133-1.067-5.333,0-6.4,2.133c-1.067,3.2,1.067,4.267,2.133,5.333c-3.2,0-5.333,0-8.533,1.067l-1.067,1.067
		c1.067,4.267-1.067,3.2-3.2,3.2c-5.333,1.067-9.6,2.133-12.8,8.533c-1.067,2.133-2.133,3.2-4.267,4.267
		c-1.067,1.067-2.133,0-4.267,0v-1.067c1.067,0,2.133,0,3.2-1.067c1.067-1.067,2.133-2.133,2.133-2.133
		c-1.067-1.067-2.133-3.2-3.2-3.2c-3.2-1.067-7.467,0-10.667-1.067c-1.067,0-1.067,0-2.133-1.067c-2.133-3.2-4.267-3.2-5.333-2.133
		c-4.267,2.133-8.533,4.267-12.8,6.4c-1.067,1.067-2.133,2.133-3.2,3.2v1.067c2.133,2.133,0,4.267,0,5.333
		c-2.133,3.2-4.267,5.333-6.4,8.533c-2.133,3.2-1.067,8.533,1.067,11.733c2.133,2.133,3.2,2.133,6.4-1.067
		c2.133-2.133,3.2-1.067,4.267,2.133c1.067,2.133,1.067,3.2,3.2,3.2c1.067,0,3.2-1.067,4.267-3.2s1.067-4.267,2.133-6.4
		c1.067-2.133,0-4.267-2.133-4.267c-2.133-1.067-2.133-2.133-1.067-4.267c0-1.067,1.067-2.133,2.133-3.2
		c1.067,5.333,2.133,6.4,5.333,7.467l1.067,5.333c-2.133,0-3.2,1.067-3.2,4.267c0,1.067-1.067,2.133-1.067,3.2
		c-2.133,1.067-3.2,3.2-5.333,4.267c-2.133,1.067-4.267,0-5.333-2.133c-1.067-2.133-1.067-3.2-3.2-3.2
		c-2.133,1.067-2.133,2.133-2.133,4.267c0,1.067,0,3.2,0,4.267c-1.067,3.2-3.2,6.4-5.333,9.6c0-2.133,0-4.267-1.067-4.267
		c-2.133-3.2-4.267-5.333-7.467-7.467c0-1.067,0-2.133,0-2.133c-2.133-2.133-3.2-3.2-5.333-2.133
		c-1.067,1.067-3.2,2.133-4.267,4.267c3.2,3.2,5.333,5.333,7.467,7.467c0,4.267,0,7.467-1.067,10.667
		c3.2-2.133,6.4-4.267,10.667-5.333c-2.133,3.2-5.333,6.4-8.533,9.6c1.067,0,2.133,1.067,3.2,1.067c2.133,1.067,3.2,3.2,3.2,6.4
		c0,3.2-1.067,4.267-3.2,4.267c-1.067,0-3.2,1.067-4.267,1.067c-3.2,1.067-3.2,2.133-3.2,6.4c0,1.067,0,3.2,0,4.267
		c0,1.067,1.067,3.2,2.133,4.267c2.133,2.133,4.267,3.2,6.4,4.267c-1.067,4.267-3.2,7.467-4.267,11.733
		c0,5.333-1.067,9.6-3.2,13.867c-2.133,4.267-3.2,10.667-2.133,16c1.067,4.267,2.133,9.6,3.2,13.867
		c1.067,3.2,3.2,7.467,5.333,10.667c3.2,4.267,6.4,8.533,10.667,11.733c3.2,3.2,6.4,4.267,9.6,3.2
		c1.067-1.067,2.133-1.067,3.2-1.067c3.2,0,6.4-2.133,7.467-5.333c2.133-3.2,4.267-3.2,7.467-2.133
		c1.067,1.067,3.2,1.067,4.267,2.133c4.267,0,4.267,1.067,5.333,5.333c2.133,8.533,6.4,14.933,10.667,21.333
		c4.267,6.4,6.4,11.733,5.333,19.2c-1.067,4.267,0,8.533,3.2,11.733c6.4,8.533,10.667,19.2,16,29.867
		c3.2,6.4,7.467,8.533,11.733,6.4c6.4-3.2,10.667-8.533,11.733-17.067c1.067-5.333,2.133-9.6,3.2-14.933c0-1.067,0-3.2,0-5.333
		c-2.133-5.333-1.067-9.6,1.067-13.867c1.067-3.2,2.133-6.4,1.067-9.6c-1.067-3.2-1.067-6.4-2.133-9.6c-1.067-3.2-2.133-6.4-3.2-9.6
		c-2.133-8.533,0-17.067,3.2-23.467c2.133-4.267,4.267-9.6,4.267-16c0-4.267,1.067-8.533-1.067-12.8c-3.2,2.133-6.4,3.2-8.533,5.333
		c-1.067,1.067-3.2,1.067-4.267-1.067c-2.133-2.133-4.267-5.333-6.4-6.4c-3.2-2.133-6.4-5.333-8.533-8.533
		c-3.2-6.4-6.4-11.733-10.667-17.067c0,0,0-1.067-1.067-2.133c0,0,0,0,1.067-1.067c3.2,3.2,6.4,6.4,9.6,10.667
		c2.133,2.133,3.2,4.267,5.333,7.467c2.133,3.2,5.333,6.4,7.467,10.667c4.267,6.4,3.2,6.4,8.533,2.133
		c6.4-4.267,9.6-11.733,12.8-19.2c1.067-2.133,1.067-3.2,2.133-5.333c0-4.267-1.067-6.4-4.267-8.533
		c-1.067-1.067-2.133-1.067-4.267-2.133s-3.2-2.133-3.2,1.067c0,1.067-1.067,2.133-1.067,3.2c-1.067,1.067-1.067,1.067-2.133,0
		c-1.067-1.067-2.133-2.133-3.2-3.2c-2.133-2.133-5.333-4.267-6.4-8.533c2.133,2.133,5.333,4.267,7.467,6.4
		c2.133,1.067,4.267,2.133,5.333,0s2.133-2.133,4.267-1.067c4.267,2.133,8.533,1.067,11.733,0c3.2-1.067,7.467,1.067,9.6,4.267
		c3.2,5.333,4.267,5.333,8.533,3.2c1.067,1.067,1.067,3.2,2.133,4.267c2.133,5.333,4.267,9.6,7.467,14.933
		c2.133,3.2,4.267,6.4,6.4,9.6c2.133,3.2,4.267,2.133,4.267-1.067c0-1.067,0-2.133,1.067-3.2l0,0c1.067-4.267,0-7.467-1.067-11.733
		c-1.067-2.133,0-4.267,1.067-6.4c2.133-4.267,3.2-9.6,5.333-14.933c1.067-1.067,3.2-2.133,4.267-3.2c3.2,3.2,7.467,6.4,9.6,11.733
		c1.067,2.133,2.133,3.2,3.2,1.067c0-1.067,1.067-1.067,2.133-2.133c3.2,4.267,5.333,8.533,6.4,14.933
		c0,2.133,1.067,5.333,2.133,6.4c3.2,5.333,7.467,9.6,11.733,14.933c-2.133-1.067-3.2-2.133-5.333-4.267
		c-3.2-3.2-5.333-4.267-8.533-3.2c0,0-1.067,0-1.067,1.067c0,1.067,1.067,1.067,1.067,2.133c5.333,3.2,8.533,8.533,12.8,13.867
		c2.133,3.2,5.333,4.267,7.467,7.467c1.067,1.067,1.067,1.067,2.133,1.067c1.067-3.2,2.133-6.4,3.2-9.6l-1.067-1.067
		c-1.067-1.067-2.133-1.067-3.2-2.133c-1.067-1.067-2.133-3.2-3.2-4.267c0-1.067,1.067-2.133,0-3.2
		c-1.067-4.267-3.2-8.533-6.4-10.667c-5.333-2.133-6.4-6.4-7.467-11.733c0-2.133,0-3.2,2.133-2.133c1.067,0,1.067,0,2.133,1.067
		c2.133,2.133,5.333,5.333,8.533,8.533c1.067-2.133,3.2-5.333,4.267-8.533c1.067-1.067,0-4.267-1.067-6.4
		c-2.133-4.267-5.333-7.467-8.533-9.6c-3.2-1.067-3.2-4.267-2.133-6.4c1.067-2.133,3.2-3.2,4.267-4.267
		c3.2-2.133,6.4-3.2,8.533-7.467c2.133-3.2,3.2-7.467,3.2-11.733c0-3.2-1.067-7.467-3.2-9.6c0,0,0-1.067-1.067-1.067
		c-1.067-2.133-2.133-3.2-4.267-5.333c-4.267-3.2-4.267-3.2-2.133-8.533c-1.067,0-3.2-1.067-4.267-1.067c-1.067,0-2.133,0-3.2-1.067
		c0,0-1.067-1.067-1.067-2.133s1.067-2.133,1.067-2.133s1.067,0,2.133,1.067c0,0,1.067,1.067,1.067,2.133
		c2.133-1.067,3.2-2.133,5.333,1.067l0,0c3.2,0,4.267,2.133,5.333,5.333c0,1.067,2.133,2.133,3.2,2.133s2.133-1.067,3.2-2.133
		c0-1.067,0-3.2-1.067-4.267c-2.133-2.133-4.267-4.267-6.4-6.4c-2.133-2.133-2.133-7.467,0-8.533c3.2-2.133,4.267-4.267,3.2-9.6
		c-2.133-7.467-6.4-12.8-10.667-18.133c-1.067-1.067-3.2,0-4.267,0c-1.067,0-1.067,1.067-2.133,1.067
		c-1.067-1.067-3.2-2.133-3.2-2.133c1.067-3.2-1.067-6.4,1.067-8.533l0,0l9.6-2.133c2.133,0,3.2-1.067,3.2-4.267
		c0-1.067,0-2.133,1.067-2.133c-3.2-6.4-6.4-11.733-9.6-18.133C454.795,141.098,450.528,141.098,447.328,141.098z"/>
</g>
<g>
	<path style="fill:#415A6B;" d="M324.661,511.231c-56.533,14.933-125.867-104.533-160-230.4S130.528,17.364,188.128,1.364l4.267,16
		c-35.2,9.6-49.067,118.4-10.667,259.2s103.467,228.267,139.733,218.667L324.661,511.231z"/>
	<path style="fill:#415A6B;" d="M511.328,324.564l-16-4.267c9.6-35.2-77.867-101.333-218.667-138.667
		c-140.8-38.4-249.6-24.533-259.2,10.667l-16-4.267c14.933-56.533,153.6-56.533,279.467-23.467S526.261,266.964,511.328,324.564z"/>
	<path style="fill:#415A6B;" d="M132.661,451.498c-26.667,7.467-49.067,5.333-61.867-8.533l11.733-11.733
		c25.6,25.6,126.933-17.067,229.333-120.533c102.4-102.4,145.067-203.733,119.467-229.333l11.733-11.733
		c41.6,41.6-27.733,161.067-119.467,252.8C261.728,384.298,187.061,436.564,132.661,451.498z"/>
</g>
<g>
	<circle style="fill:#F3705A;" cx="150.795" cy="151.764" r="30.933"/>
	<circle style="fill:#F3705A;" cx="217.995" cy="399.231" r="30.933"/>
</g>
<circle style="fill:#FFD15C;" cx="398.261" cy="217.898" r="30.933"/>
</svg>
