<?xml version="1.0" encoding="utf-8"?>
<svg xmlns="http://www.w3.org/2000/svg" height="256" width="256" viewBox="0 0 256 256">
  <g>
    <path id="path1" transform="rotate(0,128,128) translate(0,21.343994140625) scale(8,8)  " fill="#1E1E1E" d="M0,0.86499024L25.80899,0.86499024 25.80899,2.4800104 22.119019,5.5149838 22.119019,4.5499874 3.6849976,4.5499874 3.6849976,22.973998 22.119019,22.973998 22.119019,15.100005 25.80899,10.679992 25.80899,26.664001 0,26.664001z M30.75,0L32,1.3299866 16.154999,20.333984 7.0599976,9.8489982 8.4850159,8.2949821 16.154999,12.003997z" />
  </g>
</svg>

