<?xml version="1.0" encoding="utf-8"?>
<svg xmlns="http://www.w3.org/2000/svg" height="256" width="256" viewBox="0 0 256 256">
  <g>
    <path id="path1" transform="rotate(0,128,128) translate(0,6.86645180394407E-05) scale(7.99999618530455,7.99999618530455)  " fill="#FFFFFF" d="M1.7000008,1.6999989L1.7000008,30.299999 30.300015,30.299999 30.300015,1.6999989z M0,0L32.000016,0 32.000016,31.999999 0,31.999999z" />
  </g>
</svg>

