<?xml version="1.0" encoding="UTF-8" standalone="no"?>
<svg width="48px" height="48px" viewBox="0 0 48 48" version="1.1" xmlns="http://www.w3.org/2000/svg" xmlns:xlink="http://www.w3.org/1999/xlink">
    <!-- Generator: Sketch 3.8.2 (29753) - http://www.bohemiancoding.com/sketch -->
    <title>document</title>
    <desc>Created with Sketch.</desc>
    <defs></defs>
    <g id="Assets" stroke="none" stroke-width="1" fill="none" fill-rule="evenodd">
        <g id="document" fill="#C1C1C1">
            <path d="M36.602,19.241 C36.602,18.765 36.373,18.341 36.017,18.07 L25.008,7.43 C25.006,7.428 25.002,7.427 25,7.425 C24.862,7.293 24.698,7.187 24.517,7.114 C24.509,7.111 24.501,7.11 24.493,7.107 C24.323,7.041 24.139,7.003 23.945,7.002 C23.942,7.002 23.939,7 23.936,7 C23.933,7 23.929,7.001 23.926,7.001 L14.023,7.001 C12.357,7.001 11,8.323 11,9.948 L11,36.322 C11,37.948 12.357,39.27 14.023,39.27 L33.562,39.27 C35.229,39.27 36.588,37.948 36.586,36.322 L36.586,19.396 C36.592,19.344 36.602,19.294 36.602,19.241 Z M14.043,36.322 L14.023,9.967 L22.413,9.967 L22.413,17.773 C22.413,19.399 23.772,20.722 25.439,20.722 L33.545,20.722 L33.562,36.303 L14.043,36.322 Z M18.59,23.6933 C17.751,23.6933 17.069,24.3573 17.069,25.1763 C17.069,25.9953 17.751,26.6603 18.59,26.6603 L28.996,26.6603 C29.837,26.6603 30.519,25.9933 30.519,25.1763 C30.519,24.3573 29.839,23.6933 28.998,23.6933 L18.59,23.6933 Z M18.59,29.6263 C17.751,29.6263 17.069,30.2893 17.069,31.1103 C17.069,31.9283 17.751,32.5933 18.59,32.5933 L28.996,32.5933 C29.837,32.5933 30.519,31.9283 30.519,31.1103 C30.519,30.2893 29.839,29.6263 28.998,29.6263 L18.59,29.6263 Z M25.458,12.043 L31.376,17.761 L25.458,17.773 L25.458,12.043 Z"></path>
        </g>
    </g>
</svg>