<?xml version="1.0" encoding="UTF-8" standalone="no"?>
<svg width="24px" height="24px" viewBox="0 0 24 24" version="1.1" xmlns="http://www.w3.org/2000/svg" xmlns:xlink="http://www.w3.org/1999/xlink">
    <!-- Generator: Sketch 3.8.2 (29753) - http://www.bohemiancoding.com/sketch -->
    <title>edit</title>
    <desc>Created with Sketch.</desc>
    <defs></defs>
    <g id="Assets" stroke="none" stroke-width="1" fill="none" fill-rule="evenodd">
        <g id="edit" fill="rgb(0,158,224)">
            <path d="M6.28373239,13.658045 L9.63867095,16.8720141 L16.1012379,10.3030214 L12.7456937,7.08964996 L6.28373239,13.658045 Z M8.77197512,17.7538035 L5.41643091,14.5396352 L4,19.0721046 L8.77197512,17.7538035 Z M15.7858923,4 L13.6148122,6.20626668 L16.9703564,9.42123195 L19.1414365,7.21337144 L15.7858923,4 Z"></path>
        </g>
    </g>
</svg>