<svg height="512px" viewBox="0 0 512.00096 512" width="512px" xmlns="http://www.w3.org/2000/svg">

<path style="fill:rgb(51,51,51);" d="m87.816406 96.515625v-12.429687c0-4.136719-3.359375-7.488282-7.5-7.488282-4.144531 0-7.5 3.351563-7.5 7.488282v12.429687c0 4.136719 3.355469 7.488281 7.5 7.488281 4.140625 0 7.5-3.351562 7.5-7.488281zm0 0"/>
<path style="fill:rgb(51,51,51);" d="m506.984375 164.800781c-6.429687-9.125-17.59375-13.351562-28.4375-10.769531l-101.34375 24.160156c-13.53125-7.988281-27.507813-13.886718-41.890625-17.648437-4.007812-1.046875-8.101562 1.347656-9.152344 5.355469-1.046875 4.007812 1.347656 8.105468 5.355469 9.15625 35.703125 9.34375 69.019531 33.386718 99.027344 71.457031 26.050781 33.050781 43.964843 69.550781 54.402343 94.351562 2.058594 4.886719 1.335938 10.3125-1.933593 14.507813-3.285157 4.214844-8.398438 6.25-13.675781 5.441406-46.074219-7.035156-79.605469-25.667969-79.933594-25.855469-2.039063-1.148437-4.496094-1.28125-6.644532-.355469-2.152343.921876-3.746093 2.796876-4.316406 5.066407l-6.554687 26.183593c-1.125 4.488282-5.679688 7.355469-10.152344 6.390626-60.675781-13.078126-84.542969-45.039063-84.757813-45.332032-1.65625-2.316406-4.476562-3.496094-7.292968-3.042968-2.808594.453124-5.121094 2.460937-5.96875 5.179687-.125.40625-3.132813 10.101563-5.546875 19.261719-1.214844 4.605468-5.835938 7.335937-10.523438 6.21875-48.75-11.652344-79.011719-34-89.9375-66.421875-11.890625-35.292969 2.40625-74.179688 34.773438-94.570313 22.054687-13.894531 58.644531-29.382812 107.722656-24.25 4.121094.433594 7.8125-2.558594 8.242187-6.679687.429688-4.121094-2.5625-7.808594-6.679687-8.238281-19.804687-2.070313-37.746094-1.039063-53.71875 1.847656-18.9375-15.019532-35.988281-34.222656-52.480469-52.800782-30.394531-34.234374-59.117187-66.585937-95.039062-66.585937-.398438 0-.03125-9.921875.585937-13.894531 1.027344-6.609375-1.316406-13.238282-6.261719-17.738282-4.96875-4.519531-11.824218-6.230468-18.339843-4.574218-18.484375 4.691406-27.246094 13.914062-31.34375 20.828125-1.453125 2.453125-3.417969 4.609375-5.839844 6.410156-23.105469 17.191406-21.046875 44.785156-19.410156 54.726563-7.664063 10.398437-13.46875 20.921874-17.605469 29.589843-3.292969 6.890625-3.054688 14.996094.636719 21.679688 2.519531 4.558593 6.316406 8.035156 10.871093 10.101562-8.332031 18.234375-2.363281 30.0625 1.816407 34.652344 10.890625 11.964844 27.492187 12.027344 30.3125 12.300781-.449219 6.195313-.816407 12.820313-1.050781 19.789063-2.25 66.507812 9.515624 110.550781 19.78125 135.789062 1.1875 2.910157 5.523437 5.828125 9.773437 4.117188 3.84375-1.542969 5.683594-5.933594 4.121094-9.769531-33.765625-82.996094-12-195.394532-11.777344-196.515626 0-.003906 0-.007812 0-.011718.089844-.449219 2.152344-11.21875-1.222656-24.707032-2.726563-10.886718-9.542969-25.542968-26.339844-37.09375 14.394531-16.328124 34.253906-30.148437 60.394531-30.671874 29.570313-.617188 56.351563 29.589843 84.71875 61.539062 14.355469 16.164062 29.125 32.789062 45.460938 47.128906-18.574219 5.398438-33.773438 13.066406-45.324219 20.339844-18.269531 11.511719-32.441406 28.921875-39.902344 49.027344-7.542969 20.335937-7.933593 42.71875-1.089843 63.023437 12.6875 37.644531 46.554687 63.289063 100.664062 76.222657 12.675781 3.03125 25.203125-4.429688 28.515625-16.984376.535156-2.03125 1.105469-4.105468 1.667969-6.101562 12.808594 11.96875 58.152344 41.417969 89.269531 41.417969 10.609375 0 20.128906-7.179688 22.828125-17.953125l4.273438-17.066406c4.507812 2.136718 10.65625 4.859374 18.164062 7.734374-27.0625 26.933594-61.113281 46.253907-101.449219 57.558594-.484375-1.128906-5.6875-13.777344-20.851562-13.777344-8.9375 0-17.066407 5.273438-20.710938 13.433594l-4.183593 9.363282c-14.777344 1.804687-30.359376 2.734374-46.371094 2.734374-56.769532 0-98.664063-21.589843-124.519532-64.171874-2.148437-3.539063-6.761718-4.667969-10.304687-2.519532-3.539063 2.152344-4.667969 6.765625-2.515625 10.304688 25.273438 41.625 64.023438 65.207031 115.371094 70.320312l-6.570313 15.472656c-9.351562 2.570313-18.144531 7.128907-25.628906 13.308594-4.632813 3.828125-7.496094 9.230469-8.0625 15.207032-.5625 5.980468 1.234375 11.820312 5.066406 16.445312 4.445313 5.363281 10.875 8.132812 17.351563 8.132812 5.050781 0 10.132812-1.6875 14.320312-5.144531 8.832032-7.296875 21.65625-7.296875 30.492188 0 1.167968.964844 6.246094 5.15625 15.707031 5.15625 5.210937 0 10.207031-1.789062 14.285156-5.15625 8.835938-7.296875 21.660157-7.296875 30.496094 0 6.246094 5.160157 19.652344 8.8125 31-2.277343 4.214844-4.121094 6.535156-9.855469 6.359375-15.730469-.179688-5.957031-2.890625-11.636719-7.4375-15.578125-4.859375-4.214844-10.214844-7.683594-15.992188-10.367188 0 0 13.28125-28.773437 13.597657-29.84375 46.769531-12.550781 85.808593-35.203125 116.167969-67.410156 12.25 3.898438 26.65625 7.585938 42.582031 10.019531 10.71875 1.636719 21.101562-2.496093 27.769531-11.054687 6.652344-8.535156 8.121094-19.582032 3.925781-29.546875-5.035156-11.960938-11.757812-26.5625-20.246093-42.226563 13.535156-11.421875 23.03125-26.226562 27.601562-43.1875 2.214844-8.207031.125-16.863281-5.585938-23.152344-3.316406-3.652343-7.542968-6.152343-12.144531-7.34375 7.066407-7.398437 13.480469-15.480468 19.183594-24.25 6.101563-9.382812 5.875-20.90625-.59375-30.082031zm-480.628906 3.3125c-4.78125-8.761719.648437-17.527343 3.3125-21.167969l21.015625 2.441407c-.96875 6.015625-2.28125 15.167969-3.441406 26.605469-2.050782-.207032-16.105469.886718-20.886719-7.878907zm26.1875-33.613281-29.835938-3.464844c-2.835937-.328125-5.253906-1.945312-6.628906-4.433594-1.375-2.492187-1.457031-5.394531-.230469-7.964843 3.414063-7.148438 8.078125-15.71875 14.101563-24.300781 19.269531 12.832031 22.457031 30.515624 22.59375 40.164062zm-18.238281-68.644531c.917968-8.597657 4.300781-18.761719 13.976562-25.960938 4.027344-2.996093 7.320312-6.628906 9.789062-10.800781 2.167969-3.65625 7.925782-10.332031 22.132813-13.9375 2.335937-.59375 3.964844.59375 4.554687 1.132812.582032.527344 1.898438 2.011719 1.535157 4.339844-.769531 4.957032-1.664063 10.972656-2.660157 17.898438-20.164062 4-36.457031 14.609375-49.328124 27.328125zm201.011718 397.554687c-.4375-.214844-.875-.4375-1.320312-.640625l8.132812-19.152343c4.199219-.273438 8.359375-.605469 12.464844-1.003907l-7.253906 16.246094c-4.140625 1.128906-8.164063 2.671875-12.023438 4.550781zm-55.050781 31.855469c-3.191406 2.632813-8.105469 2.324219-10.566406-.996094-3.292969-4.441406-.546875-9.246093.996093-10.519531 6.652344-5.492188 14.628907-9.347656 23.070313-11.144531 2.390625-.507813 4.386719-2.152344 5.339844-4.402344l10.109375-23.8125c2.015625.050781 12.925781.027344 16.3125-.054687l-8.347656 19.664062c-1.996094 5.542969 1.820312 8.660156 3.167968 9.433594-3.816406 3.878906-6.050781 8.824218-6.597656 13.914062-11.484375-2.617187-23.921875.019532-33.484375 7.917969zm120.628906-10.6875c1.410157 1.222656 4.660157 5.003906.417969 9.25-5.6875 5.6875-10.914062 1.480469-10.964844 1.4375-14.371094-11.867187-35.257812-11.902344-49.597656 0-4.6875 3.890625-9.4375.453125-10.695312-1.15625-2.472657-3.148437-1.675782-8.117187 1.734374-10.855469 6.519532-5.226562 14.285157-8.90625 22.460938-10.644531 2.34375-.5 4.308594-2.089844 5.285156-4.277344l20.023438-44.839843c1.234375-2.765626 3.988281-4.5 7.015625-4.550782 5.511719-.089844 10.34375 4.359375 6.964843 10.921875l-15.773437 33.90625c-.90625 1.949219-.933594 4.191407-.074219 6.160157s2.519532 3.476562 4.5625 4.136718c6.902344 2.238282 13.175782 5.773438 18.640625 10.511719zm190.75-238.855469c-3.578125 13.265625-10.515625 24.585938-20.644531 33.761719-6.011719-10.234375-12.75-20.714844-20.222656-31.046875 7.023437-4.003906 13.683594-8.4375 19.945312-13.3125l9.78125-1.648438c3.378906-.570312 6.632813.550782 8.929688 3.082032 2.292968 2.527344 3.097656 5.867187 2.210937 9.164062zm3.359375-59.019531c-13.589844 20.890625-31.527344 37.574219-53.359375 49.671875-14.976562-18.871094-30.808593-34.507812-47.386719-46.832031l87.765626-20.917969c5.875-1.398438 10.414062 1.570312 12.703124 4.816406 2.898438 4.113282 3.003907 9.070313.277344 13.261719zm0 0"/>

</svg>