<?xml version="1.0" encoding="UTF-8" standalone="no"?>
<svg width="24px" height="24px" viewBox="0 0 24 24" version="1.1" xmlns="http://www.w3.org/2000/svg" xmlns:xlink="http://www.w3.org/1999/xlink">
    <!-- Generator: Sketch 3.8.2 (29753) - http://www.bohemiancoding.com/sketch -->
    <title>locked</title>
    <desc>Created with Sketch.</desc>
    <defs></defs>
    <g id="Assets" stroke="none" stroke-width="1" fill="none" fill-rule="evenodd">
        <g id="locked" fill="#020202">
            <path d="M12.958,16.1848 L12.958,18.8328 L10.828,18.8328 L10.828,16.1848 C10.345,15.8588 10.029,15.3168 10.029,14.7028 C10.029,13.7048 10.864,12.8958 11.893,12.8958 C12.923,12.8958 13.758,13.7048 13.758,14.7028 C13.758,15.3168 13.442,15.8588 12.958,16.1848 M17.09,10.3508 L6.697,10.3508 C5.76,10.3508 5,11.0868 5,11.9958 L5,20.0148 C5,20.9228 5.76,21.6588 6.697,21.6588 L17.091,21.6588 C18.028,21.6588 18.788,20.9228 18.788,20.0148 L18.788,11.9958 C18.788,11.0868 18.028,10.3508 17.09,10.3508 Z M9.5601,8.089 C9.5601,6.84 10.6051,5.827 11.8931,5.827 C13.1821,5.827 14.2271,6.84 14.2271,8.089 L14.2271,9.785 L17.1431,9.785 L17.1431,8.089 C17.1431,5.278 14.7931,3 11.8931,3 C8.9941,3 6.6431,5.278 6.6431,8.089 L6.6431,9.785 L9.5601,9.785 L9.5601,8.089 Z"></path>
        </g>
    </g>
</svg>